Lecture 06: T-test
…
3.7.1 Hypotheses

\(\large H_0 :\mu_d = 0\)

\(\large H_a :\mu_d \ne 0\)

Note that we take the difference before fitting the model

3.7.2 Data

Here is where we will be using the caterpillar data

as_tibble(caterpillar)

# A tibble: 24 × 3
   plot_number treatment    caterpillar_count
         <int> <fct>                    <int>
 1           1 control                     23
 2           1 bt_herbicide                19
 3           2 control                     18
 4           2 bt_herbicide                18
 5           3 control                     29
 6           3 bt_herbicide                24
 7           4 control                     22
 8           4 bt_herbicide                23
 9           5 control                     33
10           5 bt_herbicide                31
# ℹ 14 more rows
…
However, the way this data is organized, we need to subtract row 2 from row 1, row 4 from row 3, etc.

Based on the dplyr functions we’ve learned so far, there is no simple solution apparent.

Luckily, there is a special helper function called diff() that we can use inside of mutate().

First, we need to group the data so that it uses the correct values.

Here, we want to know what the effect is within plots, so we will use group_by(plot_number).

caterpillar |>
  group_by(plot_number) |>
  mutate(difference = -diff(caterpillar_count))

# A tibble: 24 × 4
# Groups:   plot_number [12]
   plot_number treatment    caterpillar_count difference
         <int> <fct>                    <int>      <int>
 1           1 control                     23          4
 2           1 bt_herbicide                19          4
 3           2 control                     18          0
 4           2 bt_herbicide                18          0
 5           3 control                     29          5
 6           3 bt_herbicide                24          5
 7           4 control                     22         -1
 8           4 bt_herbicide                23         -1
 9           5 control                     33          2
10           5 bt_herbicide                31          2
# ℹ 14 more rows
…
