Lecture Week 02: Intro
…
as_tibble() is a useful function to know

a tibble is a special data frame

Shows us the dimensions (rows and columns) at the top

It only shows the number of columns that easily fit in your window

Extra column names are listed below

It also shows the mode of each column which can be extremely helpful

as_tibble(rxp)

# A tibble: 2,502 × 14
     Ind Block  Tank Tank.Unique Hatch Pred  Res   Age.DPO Age.FromEmergence
   <int> <int> <int>       <int> <fct> <fct> <fct>   <int>             <int>
 1     1     5     7          55 E     NL    Hi         35                 1
 2     2     5     4          52 L     C     Hi         35                 1
 3     3     5     4          52 L     C     Hi         35                 1
 4     4     5     7          55 E     NL    Hi         35                 1
 5     5     5    10          58 L     L     Hi         36                 2
 6     6     5     4          52 L     C     Hi         36                 2
 7     7     5     4          52 L     C     Hi         36                 2
 8     8     2     5          17 E     L     Hi         39                 5
 9     9     2     4          16 L     C     Hi         39                 5
10    10     1     1           1 L     NL    Hi         39                 5
# ℹ 2,492 more rows
# ℹ 5 more variables: SVL.initial <dbl>, Tail.initial <dbl>, SVL.final <dbl>,
#   Mass.final <dbl>, Resorb.days <int>
…
Here, we are going to follow the example in the textbook so that our results match those in the book

I was not involved in the collection or analysis of this data

I am trusting the author who was involved and following their lead.

I’m sure the data are being removed for good reasons

use the filter() command to keep (or discard) certain rows of data

Keep all rows where the value in SVL.final is less than 19

filter(rxp, SVL.final < 19)

# A tibble: 1,307 × 14
     Ind Block  Tank Tank.Unique Hatch Pred  Res   Age.DPO Age.FromEmergence
   <int> <int> <int>       <int> <fct> <fct> <fct>   <int>             <int>
 1     1     5     7          55 E     NL    Hi         35                 1
 2     2     5     4          52 L     C     Hi         35                 1
 3     3     5     4          52 L     C     Hi         35                 1
 4     4     5     7          55 E     NL    Hi         35                 1
 5     6     5     4          52 L     C     Hi         36                 2
 6     7     5     4          52 L     C     Hi         36                 2
 7     9     2     4          16 L     C     Hi         39                 5
 8    11     5     4          52 L     C     Hi         37                 3
 9    12     1     1           1 L     NL    Hi         39                 5
10    13     1     1           1 L     NL    Hi         39                 5
# ℹ 1,297 more rows
# ℹ 5 more variables: SVL.initial <dbl>, Tail.initial <dbl>, SVL.final <dbl>,
#   Mass.final <dbl>, Resorb.days <int>
…
Sometimes we want to find two (or more) values in a single column

For example, we may want to subset the data to include all the L and C treatments in the Pred column

Note that our goal is to have L AND C, but to accomplish this we must use the OR | operator

The value in Pred can only be one thing in each row

It can never be L and C at the same time

filter(rxp, Pred == "L") |>
  as_tibble()

# A tibble: 695 × 14
     Ind Block  Tank Tank.Unique Hatch Pred  Res   Age.DPO Age.FromEmergence
   <int> <int> <int>       <int> <fct> <fct> <fct>   <int>             <int>
 1     5     5    10          58 L     L     Hi         36                 2
 2     8     2     5          17 E     L     Hi         39                 5
 3    14     2     5          17 E     L     Hi         39                 5
 4    16     1    12          12 E     L     Lo         39                 5
 5    18     5     3          51 E     L     Lo         37                 3
 6    19     4     7          43 E     L     Hi         38                 4
 7    21     5     6          54 E     L     Hi         37                 3
 8    26     4     7          43 E     L     Hi         38                 4
 9    27     4     7          43 E     L     Hi         38                 4
10    28     2     5          17 E     L     Hi         39                 5
# ℹ 685 more rows
# ℹ 5 more variables: SVL.initial <dbl>, Tail.initial <dbl>, SVL.final <dbl>,
#   Mass.final <dbl>, Resorb.days <int>
…
 [1] Ind               Block             Tank              Tank.Unique      
 [5] Hatch             Pred              Res               Age.DPO          
 [9] Age.FromEmergence SVL.initial       Tail.initial      SVL.final        
[13] Mass.final        Resorb.days      
<0 rows> (or 0-length row.names)

# 0 rows. Values in Pred can never be C AND L at the same time

filter(rxp,
       Pred == "L" |
       Pred == "C") |>
  as_tibble()

# A tibble: 2,007 × 14
     Ind Block  Tank Tank.Unique Hatch Pred  Res   Age.DPO Age.FromEmergence
   <int> <int> <int>       <int> <fct> <fct> <fct>   <int>             <int>
 1     2     5     4          52 L     C     Hi         35                 1
 2     3     5     4          52 L     C     Hi         35                 1
 3     5     5    10          58 L     L     Hi         36                 2
 4     6     5     4          52 L     C     Hi         36                 2
 5     7     5     4          52 L     C     Hi         36                 2
 6     8     2     5          17 E     L     Hi         39                 5
 7     9     2     4          16 L     C     Hi         39                 5
 8    11     5     4          52 L     C     Hi         37                 3
 9    14     2     5          17 E     L     Hi         39                 5
10    16     1    12          12 E     L     Lo         39                 5
# ℹ 1,997 more rows
# ℹ 5 more variables: SVL.initial <dbl>, Tail.initial <dbl>, SVL.final <dbl>,
#   Mass.final <dbl>, Resorb.days <int>
…
