KEY 02 intro R
…
GRADED

3.5 Recall that the year column is an integer. Create a new object called finch_year which has the year column stored as a factor and have the levels be in the order of 1975 and then 2012. Print the new finch_year in your console as a tibble.

### GRADED 0.5 points ####
# check that year has <fct> in the output
finch_year <- finch |>
  mutate(year = factor(year, levels = c("1975", "2012")))

finch_year |>
  as_tibble()

# A tibble: 651 × 5
   year   band species blength bdepth
   <fct> <int> <fct>     <dbl>  <dbl>
 1 2012  19022 fortis     10      8.5
 2 2012  19028 fortis     12.5    8.9
 3 2012  19032 fortis      9.3    7.5
 4 2012  19041 fortis     10.3    9.6
 5 2012  19044 fortis     11      9.2
 6 2012  19048 fortis     10.1    8.2
 7 2012  19072 fortis      9.6    7.8
 8 2012  19082 fortis     10.9    8.6
 9 2012  19104 fortis     10.3    8.4
10 2012  19114 fortis      9.8    7.7
# ℹ 641 more rows
…
